  __  __ ______ _______       __  __  ____  _____  ______ ____ ______   _____ _    _ _____ 
 |  \/  |  ____|__   __|/\   |  \/  |/ __ \|  __ \|  ____/ __ \___  /  / ____| |  | |_   _|
 | \  / | |__     | |  /  \  | \  / | |  | | |__) | |__ | |  | | / /  | |  __| |  | | | |  
 | |\/| |  __|    | | / /\ \ | |\/| | |  | |  _  /|  __|| |  | |/ /   | | |_ | |  | | | |  
 | |  | | |____   | |/ ____ \| |  | | |__| | | \ \| |   | |__| / /__  | |__| | |__| |_| |_ 
 |_|  |_|______|  |_/_/    \_\_|  |_|\____/|_|  \_\_|    \____/_____|  \_____|\____/|_____|

																   
				 ( -o- )---( -o- )
				  ;-...-`   `-...-;
				 /                 \
				/                   \
			   | /_               _\ |
			   \`'.`'"--.....--"'`.'`/
				\  '.   `._.`   .'  /
			 _.-''.  `-.,___,.-`  .''-._
			`--._  `'-._______.-'`  _.--`
			jgs  /                 \
				/.-'`\   .'.   /`'-.\
					